// Jest Snapshot v1, https://goo.gl/fbAQLP

exports[`DummyMessage shows the correct text 1`] = `
<div>
  <div
    class="MuiGrid-root MuiGrid-item"
  >
    <h1
      class="MuiTypography-root MuiTypography-h1"
    >
      Hello, The Core!
    </h1>
  </div>
</div>
`;
